<?xml version="1.0" encoding="UTF-8" standalone="no"?>
<svg
   xmlns:dc="http://purl.org/dc/elements/1.1/"
   xmlns:cc="http://creativecommons.org/ns#"
   xmlns:rdf="http://www.w3.org/1999/02/22-rdf-syntax-ns#"
   xmlns:svg="http://www.w3.org/2000/svg"
   xmlns="http://www.w3.org/2000/svg"
   xmlns:sodipodi="http://sodipodi.sourceforge.net/DTD/sodipodi-0.dtd"
   xmlns:inkscape="http://www.inkscape.org/namespaces/inkscape"
   width="153.12244mm"
   height="201.67554mm"
   viewBox="0 0 153.12243 201.67554"
   version="1.1"
   id="svg8"
   inkscape:version="1.0.2 (e86c870879, 2021-01-15)"
   sodipodi:docname="lg1.svg"
   inkscape:export-filename="/home/tglman/my/sites/persy.rs/logo.png"
   inkscape:export-xdpi="29.196136"
   inkscape:export-ydpi="29.196136">
  <defs
     id="defs2">
    <rect
       x="246.08321"
       y="242.81638"
       width="48.267963"
       height="45.840797"
       id="rect917" />
    <rect
       x="61.350384"
       y="77.563759"
       width="85.441635"
       height="130.70195"
       id="rect911" />
  </defs>
  <sodipodi:namedview
     id="base"
     pagecolor="#ffffff"
     bordercolor="#666666"
     borderopacity="1.0"
     inkscape:pageopacity="0"
     inkscape:pageshadow="2"
     inkscape:zoom="0.91663943"
     inkscape:cx="509.95602"
     inkscape:cy="559.24838"
     inkscape:document-units="mm"
     inkscape:current-layer="layer1"
     inkscape:document-rotation="0"
     showgrid="false"
     fit-margin-top="0"
     fit-margin-left="0"
     fit-margin-right="0"
     fit-margin-bottom="0"
     inkscape:window-width="2560"
     inkscape:window-height="1360"
     inkscape:window-x="0"
     inkscape:window-y="0"
     inkscape:window-maximized="1"
     inkscape:pagecheckerboard="false" />
  <metadata
     id="metadata5">
    <rdf:RDF>
      <cc:Work
         rdf:about="">
        <dc:format>image/svg+xml</dc:format>
        <dc:type
           rdf:resource="http://purl.org/dc/dcmitype/StillImage" />
        <dc:title></dc:title>
      </cc:Work>
    </rdf:RDF>
  </metadata>
  <g
     inkscape:label="Layer 1"
     inkscape:groupmode="layer"
     id="layer1"
     transform="translate(-27.270695,-49.295021)">
    <path
       id="rect833"
       style="opacity:0.990535;fill:#000000;stroke:none;stroke-width:13.1301"
       d="m 55.238281,6.5644531 c -26.965009,0 -48.6738279,21.7088189 -48.6738279,48.6738279 V 720.12891 c 0,26.965 21.7088189,48.67382 48.6738279,48.67382 H 536.62109 c 26.96501,0 48.67383,-21.70882 48.67383,-48.67382 V 55.238281 c 0,-26.965009 -21.70882,-48.6738279 -48.67383,-48.6738279 z M 63.123047,39.427734 A 24.052736,24.052736 0 0 1 87.175781,63.480469 24.052736,24.052736 0 0 1 63.123047,87.533203 24.052736,24.052736 0 0 1 39.070312,63.480469 24.052736,24.052736 0 0 1 63.123047,39.427734 Z m 465.613283,0 A 24.052736,24.052736 0 0 1 552.78906,63.480469 24.052736,24.052736 0 0 1 528.73633,87.533203 24.052736,24.052736 0 0 1 504.68359,63.480469 24.052736,24.052736 0 0 1 528.73633,39.427734 Z M 187.63281,152.62695 h 162.44531 c 23.13144,0 40.47917,1.61051 52.04493,4.83203 21.02858,5.98286 37.50177,18.40837 49.41797,37.27735 11.91622,18.86897 17.875,42.34071 17.875,70.41406 0,24.39161 -4.38065,48.09257 -13.14258,71.10352 -8.7619,23.01094 -19.9779,40.73037 -33.64649,53.15625 -19.27624,17.4883 -47.66501,28.30332 -85.16601,32.44531 -10.16381,0.92044 -39.95388,1.38086 -89.3711,1.38086 l -15.24609,111.14258 c -1.40191,10.1248 -2.10352,20.01899 -2.10352,29.68359 0,16.10764 4.90736,26.92267 14.72071,32.44531 4.90667,2.7613 15.24613,4.83223 31.01758,6.21289 l -2.62891,20.01953 H 122.44336 l 2.62891,-20.01953 c 18.92574,-2.76129 31.89281,-8.51362 38.90234,-17.25781 7.36001,-9.20438 12.79211,-26.2322 16.29687,-51.08398 l 40.48047,-293.39063 c 1.40191,-10.1248 2.10352,-20.01901 2.10352,-29.68359 0,-14.2668 -4.03083,-24.39215 -12.0918,-30.375 -4.90667,-3.68175 -13.668,-6.44231 -26.28515,-8.28321 z m 152.45703,28.99414 c -25.58478,0 -43.10938,3.68144 -52.57226,11.04493 -5.60763,4.6022 -9.81338,17.02771 -12.61719,37.27734 l -23.13086,167.75 h 51.51953 c 26.63625,0 47.49006,-4.60226 62.56055,-13.80664 18.22476,-11.50549 32.4182,-31.52503 42.58203,-60.0586 6.6591,-19.78937 9.99024,-39.34852 9.99024,-58.67773 0,-13.34634 -1.92794,-26.00304 -5.78321,-37.96875 -5.95812,-18.40874 -15.94775,-31.06352 -29.96679,-37.9668 -9.81335,-5.06241 -24.00677,-7.59375 -42.58204,-7.59375 z m 3.97071,376.21485 h 40.4375 v 4.75976 c -6.35702,0.74031 -9.53516,2.69638 -9.53516,5.86914 0,1.05759 0.2342,2.11624 0.70508,3.17383 l 22.07422,48.22461 16.42187,-37.4375 c 2.23675,-5.07641 3.35547,-9.09543 3.35547,-12.05664 0,-2.64398 -1.35487,-4.5476 -4.0625,-5.71094 -1.41269,-0.63455 -4.06049,-1.32219 -7.94531,-2.0625 v -4.75976 h 38.84766 v 4.91797 c -4.82661,1.05756 -8.5351,2.64456 -11.125,4.75976 -2.47217,2.11515 -4.76772,5.34164 -6.88672,9.67774 l -30.54883,63.77148 c -4.5912,9.51826 -8.71194,16.39267 -12.36133,20.62305 -6.23929,7.19156 -13.53816,10.78711 -21.89648,10.78711 -4.23801,0 -7.82842,-0.84499 -10.77149,-2.53711 -3.41395,-1.90365 -5.12109,-4.65421 -5.12109,-8.25 0,-2.22095 0.82453,-4.07212 2.47265,-5.55274 1.64813,-1.48061 3.70755,-2.2207 6.17969,-2.2207 2.70763,0 5.5335,1.37527 8.47656,4.125 3.06082,2.74971 5.41636,4.125 7.06446,4.125 4.12029,0 8.18102,-3.22646 12.18359,-9.67773 0.94178,-1.58637 3.29537,-6.24058 7.0625,-13.96094 l -31.60742,-65.67578 c -1.64808,-3.49002 -3.29719,-5.81708 -4.94531,-6.98047 -1.53044,-1.26907 -4.35435,-2.27337 -8.47461,-3.01367 z M 63.123047,687.83398 a 24.052736,24.052736 0 0 1 24.052734,24.05274 24.052736,24.052736 0 0 1 -24.052734,24.05273 24.052736,24.052736 0 0 1 -24.052735,-24.05273 24.052736,24.052736 0 0 1 24.052735,-24.05274 z m 465.613283,0 a 24.052736,24.052736 0 0 1 24.05273,24.05274 24.052736,24.052736 0 0 1 -24.05273,24.05273 24.052736,24.052736 0 0 1 -24.05274,-24.05273 24.052736,24.052736 0 0 1 24.05274,-24.05274 z"
       transform="matrix(0.26458333,0,0,0.26458333,25.53385,47.558176)" />
  </g>
</svg>
